/home/user/git/dicvtruck/src/main/java/com/dicv/truck/util/DicvUtil.java
/home/user/git/dicvtruck/src/main/java/com/dicv/truck/controller/VehicleController.java
/home/user/git/dicvtruck/src/main/java/com/dicv/truck/common/exception/DicvTruckException.java
/home/user/git/dicvtruck/src/main/java/com/dicv/truck/dao/pojo/VehicleCanParam.java
/home/user/git/dicvtruck/src/main/java/com/dicv/truck/dao/pojo/UserProfile.java
/home/user/git/dicvtruck/src/main/java/com/dicv/truck/dao/pojo/GpsVehicleParameter.java
/home/user/git/dicvtruck/src/main/java/com/dicv/truck/util/RecordState.java
/home/user/git/dicvtruck/src/main/java/com/dicv/truck/vo/VehicleVO.java
/home/user/git/dicvtruck/src/main/java/com/dicv/truck/response/Warning.java
/home/user/git/dicvtruck/src/main/java/com/dicv/truck/token/TokenCache.java
/home/user/git/dicvtruck/src/main/java/com/dicv/truck/dao/vehicle/VehicleDAOImpl.java
/home/user/git/dicvtruck/src/main/java/com/dicv/truck/response/DateRange.java
/home/user/git/dicvtruck/src/main/java/com/dicv/truck/dao/profile/UserDAO.java
/home/user/git/dicvtruck/src/main/java/com/dicv/truck/util/PasswordEncryptor.java
/home/user/git/dicvtruck/src/main/java/com/dicv/truck/response/HifiCampusStatusCode.java
/home/user/git/dicvtruck/src/main/java/com/dicv/truck/dao/vehicle/VehicleDAO.java
/home/user/git/dicvtruck/src/main/java/com/dicv/truck/controller/LoginController.java
/home/user/git/dicvtruck/src/main/java/com/dicv/truck/token/TokenDetails.java
/home/user/git/dicvtruck/src/main/java/com/dicv/truck/dao/pojo/DicvUser.java
/home/user/git/dicvtruck/src/main/java/com/dicv/truck/response/Response.java
/home/user/git/dicvtruck/src/main/java/com/dicv/truck/response/ErrorCode.java
/home/user/git/dicvtruck/src/main/java/com/dicv/truck/vo/TypeVO.java
/home/user/git/dicvtruck/src/main/java/com/dicv/truck/dao/pojo/GpsImei.java
/home/user/git/dicvtruck/src/main/java/com/dicv/truck/dao/pojo/Vehicle.java
/home/user/git/dicvtruck/src/main/java/com/dicv/truck/service/LoginService.java
/home/user/git/dicvtruck/src/main/java/com/dicv/truck/vo/UserTokenDetails.java
/home/user/git/dicvtruck/src/main/java/com/dicv/truck/vo/UserCredentials.java
/home/user/git/dicvtruck/src/main/java/com/dicv/truck/dao/profile/UserDAOImpl.java
/home/user/git/dicvtruck/src/main/java/com/dicv/truck/dao/pojo/DicvCategory.java
/home/user/git/dicvtruck/src/main/java/com/dicv/truck/response/ErrorBean.java
/home/user/git/dicvtruck/src/main/java/com/dicv/truck/vo/UserLogin.java
/home/user/git/dicvtruck/src/main/java/com/dicv/truck/response/ResponseStatus.java
/home/user/git/dicvtruck/src/main/java/com/dicv/truck/response/FileUploader.java
/home/user/git/dicvtruck/src/main/java/com/dicv/truck/common/constants/DicvConstants.java
/home/user/git/dicvtruck/src/main/java/com/dicv/truck/dao/pojo/DicvType.java
/home/user/git/dicvtruck/src/main/java/com/dicv/truck/response/JsonDateSerializer.java
/home/user/git/dicvtruck/src/main/java/com/dicv/truck/dao/gpsImei/GpsDAO.java
/home/user/git/dicvtruck/src/main/java/com/dicv/truck/token/SimpleCORSFilter.java
/home/user/git/dicvtruck/src/main/java/com/dicv/truck/service/VehicleService.java
/home/user/git/dicvtruck/src/main/java/com/dicv/truck/vo/CategoryVO.java
/home/user/git/dicvtruck/src/main/java/com/dicv/truck/dao/gpsImei/GpsDAOImpl.java
/home/user/git/dicvtruck/src/main/java/com/dicv/truck/context/ApplicationContextHolder.java
/home/user/git/dicvtruck/src/main/java/com/dicv/truck/token/TokenInterceptor.java
/home/user/git/dicvtruck/src/main/java/com/dicv/truck/response/Pagination.java
